{
    "tests": {
        "data_lifecycle": {
            "enabled": true,
            "verbose": true,
            "instances": 2
        },
        "http_get": {
            "enabled": true,
            "verbose": false,
            "instances": 10
        },
        "http_post": {
            "enabled": true,
            "verbose": false,
            "instances": 25
        },
        "codec_test": {
            "enabled": false,
            "verbose": true,
            "instances": 1
        },
        "chaos_monkey": {
            "enabled": false,
            "verbose": true,
            "instances": 1
        }
    },
    "options": {
        "worker_count": 1,
        "multithreading": false,
	"verbose": true
    }
}
